%YAML 1.1
%TAG !u! tag:unity3d.com,2011:
--- !u!114 &11400000
MonoBehaviour:
  m_ObjectHideFlags: 0
  m_CorrespondingSourceObject: {fileID: 0}
  m_PrefabInstance: {fileID: 0}
  m_PrefabAsset: {fileID: 0}
  m_GameObject: {fileID: 0}
  m_Enabled: 1
  m_EditorHideFlags: 0
  m_Script: {fileID: 11500000, guid: 766b1ef021194b74bae4952c9d40abf5, type: 3}
  m_Name: testItem 1
  m_EditorClassIdentifier: 
  name: Ring
  icon: {fileID: 21300000, guid: c503a15de226af240bd04fad607f8142, type: 3}
  isDefaultItem: 0
